com\zuitt\discussion\models\JwtRequest.class
com\zuitt\discussion\models\User.class
com\zuitt\discussion\services\UserService.class
com\zuitt\discussion\services\UserServiceImpl.class
com\zuitt\discussion\repositories\CourseRepository.class
com\zuitt\discussion\ServletInitializer.class
com\zuitt\discussion\controllers\AuthController.class
com\zuitt\discussion\DiscussionApplication.class
com\zuitt\discussion\config\JwtToken.class
com\zuitt\discussion\controllers\CourseController.class
com\zuitt\discussion\controllers\CourseEnrollmentController.class
com\zuitt\discussion\config\WebSecurityConfig.class
com\zuitt\discussion\exceptions\UserException.class
com\zuitt\discussion\services\CourseEnrollmentServiceImpl.class
com\zuitt\discussion\models\JwtResponse.class
com\zuitt\discussion\config\JwtRequestFilter.class
com\zuitt\discussion\services\CourseService.class
com\zuitt\discussion\config\JwtAuthenticate.class
com\zuitt\discussion\services\JwtUserDetailsService.class
com\zuitt\discussion\controllers\UserController.class
com\zuitt\discussion\repositories\UserRepository.class
com\zuitt\discussion\services\CourseEnrollmentService.class
com\zuitt\discussion\services\CourseServiceImpl.class
com\zuitt\discussion\models\Course.class
com\zuitt\discussion\repositories\CourseEnrollmentRepository.class
com\zuitt\discussion\models\CourseEnrollment.class
